INDEX VERSION 1.131+C:\Poly\OneDrive - polymtl.ca\Polytechnique\A2019\INF3405\inf3405\.metadata\.plugins\org.eclipse.jdt.core
1459523266.index
379664343.index
3429681154.index
646436966.index
4120324546.index
1151569180.index
364096953.index
2060039664.index
3384131066.index
3973945260.index
2975910402.index
4069293921.index
3572716771.index
753608048.index
3945896548.index
2772419465.index
2755271588.index
2845807539.index
165794779.index
